L,adidas,Man United,2017,HOME,MALE,10,COTTON
M,adidas,Man United,2017,HOME,MALE,10,COTTON
M,adidas,Man United,2017,HOME,FEMALE,10,NYLON
S,adidas,Man United,2017,HOME,FEMALE,10,NYLON
S,adidas,Man United,2017,Away,FEMALE,10,COTTON
